// Jest Snapshot v1, https://goo.gl/fbAQLP

exports[`TaggedTextBuilder Should be able to add not tags to a text 1`] = `
Immutable.TaggedText {
  "parts": Immutable.List [
    "Writing test sucks very hard",
  ],
  "tags": Immutable.Set [],
  "metadata": Immutable.Map {},
  "random": 0,
}
`;

exports[`TaggedTextBuilder Tag by slice Should be able to tag nested text 1`] = `
Immutable.TaggedText {
  "parts": Immutable.List [
    "Writing ",
    Immutable.TaggedText {
      "parts": Immutable.List [
        "test sucks very ",
        Immutable.TaggedText {
          "parts": Immutable.List [
            "hard",
          ],
          "tags": Immutable.Set [
            "hard",
          ],
          "metadata": Immutable.Map {},
          "random": 0,
        },
        ", but it's recommended ",
      ],
      "tags": Immutable.Set [
        "big part",
      ],
      "metadata": Immutable.Map {},
      "random": 0,
    },
    Immutable.TaggedText {
      "parts": Immutable.List [
        "for all ",
        Immutable.TaggedText {
          "parts": Immutable.List [
            "code",
          ],
          "tags": Immutable.Set [
            "code",
          ],
          "metadata": Immutable.Map {},
          "random": 0,
        },
      ],
      "tags": Immutable.Set [],
      "metadata": Immutable.Map {},
      "random": 0,
    },
  ],
  "tags": Immutable.Set [],
  "metadata": Immutable.Map {},
  "random": 0,
}
`;

exports[`TaggedTextBuilder Tag by text Should be able to add tags to multiple words 1`] = `
Immutable.TaggedText {
  "parts": Immutable.List [
    "Writing test ",
    Immutable.TaggedText {
      "parts": Immutable.List [
        "sucks",
      ],
      "tags": Immutable.Set [
        "swear",
      ],
      "metadata": Immutable.Map {},
      "random": 0,
    },
    Immutable.TaggedText {
      "parts": Immutable.List [
        " ",
        Immutable.TaggedText {
          "parts": Immutable.List [
            "very",
          ],
          "tags": Immutable.Set [
            "superlative",
          ],
          "metadata": Immutable.Map {},
          "random": 0,
        },
        " hard",
      ],
      "tags": Immutable.Set [],
      "metadata": Immutable.Map {},
      "random": 0,
    },
  ],
  "tags": Immutable.Set [],
  "metadata": Immutable.Map {},
  "random": 0,
}
`;

exports[`TaggedTextBuilder Tag by text Should be able to add tags to multiple words and sentences 1`] = `
Immutable.TaggedText {
  "parts": Immutable.List [
    Immutable.TaggedText {
      "parts": Immutable.List [
        "Writing test ",
        Immutable.TaggedText {
          "parts": Immutable.List [
            "sucks",
          ],
          "tags": Immutable.Set [
            "swear",
          ],
          "metadata": Immutable.Map {},
          "random": 0,
        },
        " ",
      ],
      "tags": Immutable.Set [],
      "metadata": Immutable.Map {},
      "random": 0,
    },
    Immutable.TaggedText {
      "parts": Immutable.List [
        Immutable.TaggedText {
          "parts": Immutable.List [
            "very",
          ],
          "tags": Immutable.Set [
            "superlative",
            "lame",
          ],
          "metadata": Immutable.Map {},
          "random": 0,
        },
        " hard",
      ],
      "tags": Immutable.Set [
        "superlative",
        "lame",
      ],
      "metadata": Immutable.Map {},
      "random": 0,
    },
    Immutable.TaggedText {
      "parts": Immutable.List [
        ", but it's recommended for all ",
        Immutable.TaggedText {
          "parts": Immutable.List [
            "code",
          ],
          "tags": Immutable.Set [
            "coding",
          ],
          "metadata": Immutable.Map {},
          "random": 0,
        },
      ],
      "tags": Immutable.Set [],
      "metadata": Immutable.Map {},
      "random": 0,
    },
  ],
  "tags": Immutable.Set [
    "testing",
  ],
  "metadata": Immutable.Map {},
  "random": 0,
}
`;

exports[`TaggedTextBuilder Tag by text Should be able to add tags to same words 1`] = `
Immutable.TaggedText {
  "parts": Immutable.List [
    "Writing test sucks ",
    Immutable.TaggedText {
      "parts": Immutable.List [
        "very hard",
      ],
      "tags": Immutable.Set [
        "superlative",
        "lame",
      ],
      "metadata": Immutable.Map {},
      "random": 0,
    },
  ],
  "tags": Immutable.Set [],
  "metadata": Immutable.Map {},
  "random": 0,
}
`;

exports[`TaggedTextBuilder Tag by text Should be able to add tags to the full text 1`] = `
Immutable.TaggedText {
  "parts": Immutable.List [
    "Writing test sucks very hard",
  ],
  "tags": Immutable.Set [
    "testing",
  ],
  "metadata": Immutable.Map {},
  "random": 0,
}
`;

exports[`TaggedTextBuilder Tag by text Should be able to add tags to words 1`] = `
Immutable.TaggedText {
  "parts": Immutable.List [
    "Writing test ",
    Immutable.TaggedText {
      "parts": Immutable.List [
        "sucks",
      ],
      "tags": Immutable.Set [
        "swear",
      ],
      "metadata": Immutable.Map {},
      "random": 0,
    },
    " very hard",
  ],
  "tags": Immutable.Set [],
  "metadata": Immutable.Map {},
  "random": 0,
}
`;
